module gitlab.com/narkoleptik/aws-health-terminator

go 1.16

require (
	github.com/aws/aws-lambda-go v1.24.0
	github.com/aws/aws-sdk-go v1.40.0
	github.com/go-sql-driver/mysql v1.5.0 // indirect
	golang.org/x/crypto v0.0.0-20190308221718-c2843e01d9a2 // indirect
)
